<?xml version="1.0" encoding="UTF-8" standalone="no"?>
<svg
   xmlns:dc="http://purl.org/dc/elements/1.1/"
   xmlns:cc="http://creativecommons.org/ns#"
   xmlns:rdf="http://www.w3.org/1999/02/22-rdf-syntax-ns#"
   xmlns:svg="http://www.w3.org/2000/svg"
   xmlns="http://www.w3.org/2000/svg"
   xmlns:sodipodi="http://sodipodi.sourceforge.net/DTD/sodipodi-0.dtd"
   xmlns:inkscape="http://www.inkscape.org/namespaces/inkscape"
   inkscape:version="1.0 (6e3e5246a0, 2020-05-07)"
   sodipodi:docname="logoIcon.svg"
   id="svg1207"
   version="1.1"
   viewBox="0 0 124.15605 121.22022"
   height="121.22022mm"
   width="124.15605mm">
  <defs
     id="defs1201" />
  <sodipodi:namedview
     inkscape:window-maximized="0"
     inkscape:window-y="27"
     inkscape:window-x="50"
     inkscape:window-height="1016"
     inkscape:window-width="1428"
     fit-margin-bottom="0"
     fit-margin-right="0"
     fit-margin-left="0"
     fit-margin-top="0"
     showgrid="false"
     inkscape:document-rotation="0"
     inkscape:current-layer="g1183"
     inkscape:document-units="mm"
     inkscape:cy="303.36331"
     inkscape:cx="317.48275"
     inkscape:zoom="0.35"
     inkscape:pageshadow="2"
     inkscape:pageopacity="0.0"
     borderopacity="1.0"
     bordercolor="#666666"
     pagecolor="#ffffff"
     id="base" />
  <metadata
     id="metadata1204">
    <rdf:RDF>
      <cc:Work
         rdf:about="">
        <dc:format>image/svg+xml</dc:format>
        <dc:type
           rdf:resource="http://purl.org/dc/dcmitype/StillImage" />
        <dc:title></dc:title>
      </cc:Work>
    </rdf:RDF>
  </metadata>
  <g
     transform="translate(-21.832688,-67.901792)"
     id="layer1"
     inkscape:groupmode="layer"
     inkscape:label="Layer 1">
    <g
       style="fill:#000000"
       transform="translate(-276.24226,684.43166)"
       id="g1183">
      <g
         style="fill:#ffffff"
         transform="translate(251.12738,-614.11065)"
         id="g947-3">
        <g
           style="fill:#ffffff"
           id="g1523-6">
          <path
             id="path1684-1-5"
             style="color:#000000;font-style:normal;font-variant:normal;font-weight:normal;font-stretch:normal;font-size:medium;line-height:normal;font-family:sans-serif;font-variant-ligatures:normal;font-variant-position:normal;font-variant-caps:normal;font-variant-numeric:normal;font-variant-alternates:normal;font-variant-east-asian:normal;font-feature-settings:normal;font-variation-settings:normal;text-indent:0;text-align:start;text-decoration:none;text-decoration-line:none;text-decoration-style:solid;text-decoration-color:#000000;letter-spacing:normal;word-spacing:normal;text-transform:none;writing-mode:lr-tb;direction:ltr;text-orientation:mixed;dominant-baseline:auto;baseline-shift:baseline;text-anchor:start;white-space:normal;shape-padding:0;shape-margin:0;inline-size:0;clip-rule:nonzero;display:inline;overflow:visible;visibility:visible;isolation:auto;mix-blend-mode:normal;color-interpolation:sRGB;color-interpolation-filters:linearRGB;solid-color:#000000;solid-opacity:1;vector-effect:none;fill:#ffffff;fill-opacity:1;fill-rule:evenodd;stroke:none;stroke-width:4.99999;stroke-linecap:butt;stroke-linejoin:miter;stroke-miterlimit:4;stroke-dasharray:none;stroke-dashoffset:0;stroke-opacity:1;color-rendering:auto;image-rendering:auto;shape-rendering:auto;text-rendering:auto;enable-background:accumulate;stop-color:#000000"
             d="M 93.78588,-2.418693 A 61.280805,61.280805 0 0 0 73.05019,1.589331 C 69.57163,3.215874 66.28455,5.266417 63.28645,7.722807 45.2538,22.497215 41.00324,50.14549 56.32357,68.53925 69.23318,84.038708 93.2193,87.643348 109.05781,74.189548 122.19091,63.033839 125.19602,42.475145 113.49527,29.025382 103.97911,18.086742 86.60649,15.635848 75.37408,25.701554 66.4523,33.69662 64.50505,48.136149 73.0595,57.328047 c 6.59731,7.088917 18.36928,8.579323 25.70335,1.404567 5.44742,-5.329111 6.53161,-14.708201 0.59375,-20.372917 -2.09944,-2.002867 -4.86924,-3.14647 -7.71684,-3.246313 -2.84763,-0.09985 -5.86526,0.941946 -7.95922,3.372919 -1.38671,1.609897 -2.13746,3.655184 -2.12648,5.775359 0.0111,2.120175 0.92522,4.423447 2.9156,5.873025 1.20981,0.881103 2.63265,1.299369 4.16046,1.189593 1.52779,-0.109775 3.30708,-0.981143 4.18373,-2.66392 0.4958,-0.951722 0.61672,-1.820637 0.40203,-2.898531 -0.21465,-1.077894 -1.32257,-2.604376 -2.88663,-2.843755 -0.70802,-0.108347 -0.76874,-0.01762 -0.99994,0.02532 -0.23122,0.04295 -0.45968,0.0989 -0.76586,0.232543 -0.30615,0.133638 -0.74949,0.286774 -1.24023,1.019577 -0.22913,0.34214 -0.31729,0.877652 -0.32401,1.406115 -0.26927,-0.369737 -0.44244,-0.790975 -0.44546,-1.367359 -0.004,-0.840634 0.36508,-1.844233 0.91623,-2.484086 1.03838,-1.205505 2.41625,-1.696122 3.99613,-1.640726 1.57991,0.0554 3.27269,0.753904 4.43953,1.867069 3.66823,3.499478 2.94941,9.669421 -0.6408,13.181624 -5.13757,5.025983 -13.73044,3.937323 -18.54509,-1.236099 -6.49163,-6.975348 -4.97065,-18.258022 1.99056,-24.496178 9.00198,-8.066954 23.2342,-6.061314 31.01362,2.880961 9.75153,11.20921 7.205,28.636904 -3.90261,38.072094 C 92.23105,81.922978 71.36768,78.789788 60.16519,65.339961 46.7225,49.200496 50.49149,24.668235 66.45421,11.589752 74.0736,5.347077 83.88474,1.994665 93.75124,2.072503 Z m -2.30995,46.770271 c 0.36944,0.543486 0.42754,1.989016 0.003,2.625164 -0.42603,0.636149 -0.74901,0.709489 -0.91363,0.781347 -0.16465,0.07186 -0.23064,0.08461 -0.32041,0.101287 -0.0898,0.01667 -0.0282,0.09848 -0.67178,0 -0.60288,-0.09227 -1.21317,-0.896675 -1.2578,-1.120862 -0.0307,-0.154265 0.01,-0.195236 0.0444,-0.267684 z" />
          <g
             style="fill:#ffffff"
             id="g1690-6-6"
             transform="translate(-313.84265,14.37123)">
            <path
               id="path1692-3-3"
               d="m 410.0212,30.207249 c 0,3.472757 -2.81522,6.287984 -6.28798,6.287989 -3.47276,0 -6.28799,-2.815228 -6.28799,-6.287989 0,-3.472761 2.81523,-6.28799 6.28799,-6.28799 3.47276,5e-6 6.28798,2.815233 6.28798,6.28799"
               style="color:#000000;font-style:normal;font-variant:normal;font-weight:normal;font-stretch:normal;font-size:medium;line-height:normal;font-family:sans-serif;font-variant-ligatures:normal;font-variant-position:normal;font-variant-caps:normal;font-variant-numeric:normal;font-variant-alternates:normal;font-variant-east-asian:normal;font-feature-settings:normal;font-variation-settings:normal;text-indent:0;text-align:start;text-decoration:none;text-decoration-line:none;text-decoration-style:solid;text-decoration-color:#000000;letter-spacing:normal;word-spacing:normal;text-transform:none;writing-mode:lr-tb;direction:ltr;text-orientation:mixed;dominant-baseline:auto;baseline-shift:baseline;text-anchor:start;white-space:normal;shape-padding:0;shape-margin:0;inline-size:0;clip-rule:nonzero;display:inline;overflow:visible;visibility:visible;isolation:auto;mix-blend-mode:normal;color-interpolation:sRGB;color-interpolation-filters:linearRGB;solid-color:#000000;solid-opacity:1;vector-effect:none;fill:#ffffff;fill-opacity:1;fill-rule:nonzero;stroke:none;stroke-width:4.06195;stroke-linecap:butt;stroke-linejoin:round;stroke-miterlimit:4;stroke-dasharray:none;stroke-dashoffset:0;stroke-opacity:1;color-rendering:auto;image-rendering:auto;shape-rendering:auto;text-rendering:auto;enable-background:accumulate;stop-color:#000000;stop-opacity:1" />
            <path
               id="path1694-2-9"
               d="m 403.73242,21.888672 c -4.57038,0 -8.31836,3.747978 -8.31836,8.318359 0,4.570381 3.74798,8.31836 8.31836,8.31836 4.57038,-7e-6 8.32031,-3.747984 8.32031,-8.31836 0,-4.570376 -3.74993,-8.318352 -8.32031,-8.318359 z m 0,4.0625 c 2.37514,4e-6 4.25781,1.880721 4.25781,4.255859 0,2.375138 -1.88267,4.257809 -4.25781,4.257813 -2.37514,0 -4.25586,-1.882672 -4.25586,-4.257813 0,-2.37514 1.88072,-4.255859 4.25586,-4.255859 z"
               style="color:#000000;font-style:normal;font-variant:normal;font-weight:normal;font-stretch:normal;font-size:medium;line-height:normal;font-family:sans-serif;font-variant-ligatures:normal;font-variant-position:normal;font-variant-caps:normal;font-variant-numeric:normal;font-variant-alternates:normal;font-variant-east-asian:normal;font-feature-settings:normal;font-variation-settings:normal;text-indent:0;text-align:start;text-decoration:none;text-decoration-line:none;text-decoration-style:solid;text-decoration-color:#000000;letter-spacing:normal;word-spacing:normal;text-transform:none;writing-mode:lr-tb;direction:ltr;text-orientation:mixed;dominant-baseline:auto;baseline-shift:baseline;text-anchor:start;white-space:normal;shape-padding:0;shape-margin:0;inline-size:0;clip-rule:nonzero;display:inline;overflow:visible;visibility:visible;isolation:auto;mix-blend-mode:normal;color-interpolation:sRGB;color-interpolation-filters:linearRGB;solid-color:#000000;solid-opacity:1;vector-effect:none;fill:#ffffff;fill-opacity:1;fill-rule:nonzero;stroke:none;stroke-width:4.06195;stroke-linecap:butt;stroke-linejoin:round;stroke-miterlimit:4;stroke-dasharray:none;stroke-dashoffset:0;stroke-opacity:1;color-rendering:auto;image-rendering:auto;shape-rendering:auto;text-rendering:auto;enable-background:accumulate;stop-color:#000000;stop-opacity:1" />
          </g>
          <path
             sodipodi:nodetypes="cccccc"
             id="path1698-0-4"
             style="color:#000000;font-style:normal;font-variant:normal;font-weight:normal;font-stretch:normal;font-size:medium;line-height:normal;font-family:sans-serif;font-variant-ligatures:normal;font-variant-position:normal;font-variant-caps:normal;font-variant-numeric:normal;font-variant-alternates:normal;font-variant-east-asian:normal;font-feature-settings:normal;font-variation-settings:normal;text-indent:0;text-align:start;text-decoration:none;text-decoration-line:none;text-decoration-style:solid;text-decoration-color:#000000;letter-spacing:normal;word-spacing:normal;text-transform:none;writing-mode:lr-tb;direction:ltr;text-orientation:mixed;dominant-baseline:auto;baseline-shift:baseline;text-anchor:start;white-space:normal;shape-padding:0;shape-margin:0;inline-size:0;clip-rule:nonzero;display:inline;overflow:visible;visibility:visible;isolation:auto;mix-blend-mode:normal;color-interpolation:sRGB;color-interpolation-filters:linearRGB;solid-color:#000000;solid-opacity:1;vector-effect:none;fill:#ffffff;fill-opacity:1;fill-rule:nonzero;stroke:none;stroke-width:10;stroke-linecap:round;stroke-linejoin:miter;stroke-miterlimit:4;stroke-dasharray:none;stroke-dashoffset:0;stroke-opacity:1;color-rendering:auto;image-rendering:auto;shape-rendering:auto;text-rendering:auto;enable-background:accumulate;stop-color:#000000"
             d="m 128.72794,70.911715 c -2.76139,-1.27e-4 -5.00006,2.238299 -5.00023,4.999693 v 42.889472 c 9.9999,0 0,0 9.9999,0 V 75.911408 c -1.7e-4,-2.761175 -2.2385,-4.999511 -4.99967,-4.999693 z" />
          <path
             sodipodi:nodetypes="cccccc"
             id="path1702-6-8"
             style="color:#000000;font-style:normal;font-variant:normal;font-weight:normal;font-stretch:normal;font-size:medium;line-height:normal;font-family:sans-serif;font-variant-ligatures:normal;font-variant-position:normal;font-variant-caps:normal;font-variant-numeric:normal;font-variant-alternates:normal;font-variant-east-asian:normal;font-feature-settings:normal;font-variation-settings:normal;text-indent:0;text-align:start;text-decoration:none;text-decoration-line:none;text-decoration-style:solid;text-decoration-color:#000000;letter-spacing:normal;word-spacing:normal;text-transform:none;writing-mode:lr-tb;direction:ltr;text-orientation:mixed;dominant-baseline:auto;baseline-shift:baseline;text-anchor:start;white-space:normal;shape-padding:0;shape-margin:0;inline-size:0;clip-rule:nonzero;display:inline;overflow:visible;visibility:visible;isolation:auto;mix-blend-mode:normal;color-interpolation:sRGB;color-interpolation-filters:linearRGB;solid-color:#000000;solid-opacity:1;vector-effect:none;fill:#ffffff;fill-opacity:1;fill-rule:nonzero;stroke:none;stroke-width:10;stroke-linecap:round;stroke-linejoin:miter;stroke-miterlimit:4;stroke-dasharray:none;stroke-dashoffset:0;stroke-opacity:1;color-rendering:auto;image-rendering:auto;shape-rendering:auto;text-rendering:auto;enable-background:accumulate;stop-color:#000000"
             d="m 112.57904,70.911715 c -2.76118,1.71e-4 -4.99952,2.23851 -4.99969,4.999693 v 42.889472 c 9.99966,0 0,0 9.99966,0 l 2.4e-4,-42.889472 c -1.7e-4,-2.761386 -2.23882,-4.999809 -5.00021,-4.999693 z" />
          <path
             sodipodi:nodetypes="cccccc"
             id="path1706-1-1"
             style="color:#000000;font-style:normal;font-variant:normal;font-weight:normal;font-stretch:normal;font-size:medium;line-height:normal;font-family:sans-serif;font-variant-ligatures:normal;font-variant-position:normal;font-variant-caps:normal;font-variant-numeric:normal;font-variant-alternates:normal;font-variant-east-asian:normal;font-feature-settings:normal;font-variation-settings:normal;text-indent:0;text-align:start;text-decoration:none;text-decoration-line:none;text-decoration-style:solid;text-decoration-color:#000000;letter-spacing:normal;word-spacing:normal;text-transform:none;writing-mode:lr-tb;direction:ltr;text-orientation:mixed;dominant-baseline:auto;baseline-shift:baseline;text-anchor:start;white-space:normal;shape-padding:0;shape-margin:0;inline-size:0;clip-rule:nonzero;display:inline;overflow:visible;visibility:visible;isolation:auto;mix-blend-mode:normal;color-interpolation:sRGB;color-interpolation-filters:linearRGB;solid-color:#000000;solid-opacity:1;vector-effect:none;fill:#ffffff;fill-opacity:1;fill-rule:nonzero;stroke:none;stroke-width:10;stroke-linecap:round;stroke-linejoin:miter;stroke-miterlimit:4;stroke-dasharray:none;stroke-dashoffset:0;stroke-opacity:1;color-rendering:auto;image-rendering:auto;shape-rendering:auto;text-rendering:auto;enable-background:accumulate;stop-color:#000000"
             d="m 144.87631,70.911715 c -2.76139,-1.27e-4 -5.00006,2.238299 -5.00023,4.999693 v 42.889472 c 9.9999,0 0,0 9.9999,0 V 75.911408 c -1.7e-4,-2.761175 -2.2385,-4.999511 -4.99967,-4.999693 z" />
          <path
             sodipodi:nodetypes="ccccc"
             id="path1710-5-2"
             style="color:#000000;font-style:normal;font-variant:normal;font-weight:normal;font-stretch:normal;font-size:medium;line-height:normal;font-family:sans-serif;font-variant-ligatures:normal;font-variant-position:normal;font-variant-caps:normal;font-variant-numeric:normal;font-variant-alternates:normal;font-variant-east-asian:normal;font-feature-settings:normal;font-variation-settings:normal;text-indent:0;text-align:start;text-decoration:none;text-decoration-line:none;text-decoration-style:solid;text-decoration-color:#000000;letter-spacing:normal;word-spacing:normal;text-transform:none;writing-mode:lr-tb;direction:ltr;text-orientation:mixed;dominant-baseline:auto;baseline-shift:baseline;text-anchor:start;white-space:normal;shape-padding:0;shape-margin:0;inline-size:0;clip-rule:nonzero;display:inline;overflow:visible;visibility:visible;isolation:auto;mix-blend-mode:normal;color-interpolation:sRGB;color-interpolation-filters:linearRGB;solid-color:#000000;solid-opacity:1;vector-effect:none;fill:#ffffff;fill-opacity:1;fill-rule:nonzero;stroke:none;stroke-width:10;stroke-linecap:butt;stroke-linejoin:miter;stroke-miterlimit:4;stroke-dasharray:none;stroke-dashoffset:0;stroke-opacity:1;color-rendering:auto;image-rendering:auto;shape-rendering:auto;text-rendering:auto;enable-background:accumulate;stop-color:#000000"
             d="m 118.03039,50.837489 v 9.999906 h 31.84562 c 0,-9.999906 0,0 0,-9.999906 z" />
          <path
             sodipodi:nodetypes="ccccc"
             id="path1714-5-9"
             style="color:#000000;font-style:normal;font-variant:normal;font-weight:normal;font-stretch:normal;font-size:medium;line-height:normal;font-family:sans-serif;font-variant-ligatures:normal;font-variant-position:normal;font-variant-caps:normal;font-variant-numeric:normal;font-variant-alternates:normal;font-variant-east-asian:normal;font-feature-settings:normal;font-variation-settings:normal;text-indent:0;text-align:start;text-decoration:none;text-decoration-line:none;text-decoration-style:solid;text-decoration-color:#000000;letter-spacing:normal;word-spacing:normal;text-transform:none;writing-mode:lr-tb;direction:ltr;text-orientation:mixed;dominant-baseline:auto;baseline-shift:baseline;text-anchor:start;white-space:normal;shape-padding:0;shape-margin:0;inline-size:0;clip-rule:nonzero;display:inline;overflow:visible;visibility:visible;isolation:auto;mix-blend-mode:normal;color-interpolation:sRGB;color-interpolation-filters:linearRGB;solid-color:#000000;solid-opacity:1;vector-effect:none;fill:#ffffff;fill-opacity:1;fill-rule:nonzero;stroke:none;stroke-width:4.99999;stroke-linecap:butt;stroke-linejoin:miter;stroke-miterlimit:4;stroke-dasharray:none;stroke-dashoffset:0;stroke-opacity:1;color-rendering:auto;image-rendering:auto;shape-rendering:auto;text-rendering:auto;enable-background:accumulate;stop-color:#000000"
             d="m 96.63377,19.698821 -0.64235,4.956804 c 16.47692,2.14014 37.03868,4.503134 53.88459,5.967595 V 25.305714 C 133.95145,23.842229 111.89274,21.680765 96.63377,19.698821 Z" />
          <path
             sodipodi:nodetypes="ccccc"
             id="path1456-3"
             d="m 93.785882,-2.41912 -0.03464,4.4916258 H 149.8759 l 2.1e-4,-4.2285602 z"
             style="fill:#ffffff;fill-opacity:1;stroke:none;stroke-width:0.264583px;stroke-linecap:butt;stroke-linejoin:miter;stroke-opacity:1" />
        </g>
      </g>
      <text
         id="text1489-9-3-32-6-61-6-9"
         y="-407.24203"
         x="-618.67114"
         style="font-size:22.7796px;line-height:1.25;font-family:'Playfair Display';-inkscape-font-specification:'Playfair Display';fill:#ffffff;stroke-width:0.569493;"
         xml:space="preserve"
         transform="rotate(90)"><tspan
           style="font-style:normal;font-variant:normal;font-weight:normal;font-stretch:normal;font-family:'Linux Biolinum O';-inkscape-font-specification:'Linux Biolinum O';fill:#ffffff;stroke-width:0.569493;"
           y="-407.24203"
           x="-618.67114"
           id="tspan1487-7-6-0-8-0-7-0"
           sodipodi:role="line">EGORA.ORG</tspan></text>
    </g>
  </g>
</svg>
